module codeberg.org/apapsch/graphb

go 1.18

require (
	github.com/pkg/errors v0.9.1
	github.com/stretchr/testify v1.8.0
	github.com/udacity/graphb v0.0.0-20190520214654-912b8fd361d7
)

require (
	github.com/davecgh/go-spew v1.1.1 // indirect
	github.com/pmezard/go-difflib v1.0.0 // indirect
	gopkg.in/yaml.v3 v3.0.1 // indirect
)
